[
    {
        "id":1,
        "name": "Imbottita",
        "category": "Armatura Leggera",
        "price": "5",
        "image": "./media/armor/imbottita.png"
    },

    {
        "id": 2,
        "name": "Cuoio",
        "category": "Armatura Leggera",
        "price": "10",
        "image": "./media/armor/cuoio.webp"
    },

    {
        "id": 3,
        "name": "Cuoio Borchiato",
        "category": "Armatura Leggera",
        "price": "45",
        "image": "./media/armor/cuoio-borchiato.png"
    },

    {
        "id": 4,
        "name": "Pelle",
        "category": "Armatura Media",
        "price": "10",
        "image": "./media/armor/pelle.png"
    },

    {
        "id": 5,
        "name": "Giaco di Maglia",
        "category": "Armatura Media",
        "price": "50",
        "image": "./media/armor/giaco-di-maglia.webp"
    },

    {
        "id": 6,
        "name": "Corazza di Scaglie",
        "category": "Armatura Media",
        "price":"50",
        "image": "./media/armor/armatura-a-scaglie.webp"
    },

    {
        "id": 7,
        "name": "Corazza di Piastre",
        "category": "Armatura Media",
        "price":"400",
        "image": "./media/armor/corazza-a-piastre.webp"
    },

    {
        "id": 8,
        "name": "Mezza Armatura",
        "category": "Armatura Media",
        "price": "750",
        "image": "./media/armor/mezza-a-piastre.webp"
    },

    {
        "id": 9,
        "name": "Corazza ad Anelli",
        "category": "Armatura Pesante",
        "price": "20",
        "image": "./media/armor/armatura-ad-anelli.webp"
    },

    {
        "id": 10,
        "name": "Cotta di Maglia",
        "category": "Armatura Pesante",
        "price": "75",
        "image": "./media/armor/cotta-di-maglia.png"
    },

    {
        "id": 11,
        "name": "Corazza a Strisce",
        "category": "Armatura Pesante",
        "price": "200",
        "image": "./media/armor/armatura-a-strisce.png"
    },

    {
        "id": 12,
        "name": "Armatura Completa",
        "category": "Armatura Pesante",
        "price": "1500",
        "image": "./media/armor/armatura-completa.png"
    },

    {
        "id": 13,
        "name": "Ascia",
        "category": "Arma da Mischia Semplice",
        "price": "5",
        "image": "./media/weapon/ascia.webp"
    },

    {
        "id": 14,
        "name": "Bastone Ferrato",
        "category": "Arma da Mischia Semplice",
        "price": "0.20",
        "image": "./media/weapon/bastone-ferrato.webp"
    },

    {
        "id": 15,
        "name": "Falcetto",
        "category": "Arma da Mischia Semplice",
        "price": "1",
        "image": "./media/weapon/falcetto.webp"
    },

    {
        "id": 16,
        "name": "Giavellotto",
        "category": "Arma da Mischia Semplice",
        "price": "0.50",
        "image": "./media/weapon/giavellotto.webp"
    },

    {
        "id": 17,
        "name": "Lancia",
        "category": "Arma da Mischia Semplice",
        "price": "1",
        "image": "./media/weapon/lancia.webp"
    },

    {
        "id": 18,
        "name": "Arco Corto",
        "category": "Arma a Distanza Semplice",
        "price": "25",
        "image": "./media/weapon/arco-corto.webp"
    },
    
    {
        "id": 19,
        "name": "Balestra Leggera",
        "category": "Arma a Distanza Semplice",
        "price": "25",
        "image": "./media/weapon/balestra-leggera.webp"
    },

    {
        "id": 21,
        "name": "Fionda",
        "category": "Arma a Distanza Semplice",
        "price": "0.10",
        "image": "./media/weapon/fionda.webp"
    },

    {
        "id": 22,
        "name": "Alabarda",
        "category": "Arma da Mischia da Guerra",
        "price": "20",
        "image": "./media/weapon/alabarda.webp"
    },

    {
        "id": 23,
        "name": "Ascia Bipenne",
        "category": "Arma da Mischia da Guerra",
        "price": "30",
        "image": "./media/weapon/ascia-bipenne.webp"
    },

    {
        "id": 24,
        "name": "Spadone",
        "category": "Arma da Mischia da Guerra",
        "price": "50",
        "image": "./media/weapon/spadone.webp"
    },

    {
        "id": 25,
        "name": "Martello da Guerra",
        "category": "Arma da Mischia da Guerra",
        "price": "15",
        "image": "./media/weapon/martello-da-guerra.webp"
    },
    
    {
        "id": 26,
        "name": "Arco Lungo",
        "category": "Armi a Distanza da Guerra",
        "price": "50",
        "image": "./media/weapon/arco-lungo.webp"
    },

    {
        "id": 27,
        "name": "Balestra a Mano",
        "category": "Armi a Distanza da Guerra",
        "price": "75",
        "image": "./media/weapon/balestra-a-mano.webp"
    },

    {
        "id": 28,
        "name": "Balestra Pesante",
        "category": "Armi a Distanza da Guerra",
        "price": "50",
        "image": "./media/weapon/balestra-pesante.webp"
    },

    {
        "id": 29,
        "name": "Cerbottana",
        "category": "Armi a Distanza da Guerra",
        "price": "10",
        "image": "./media/weapon/cerbottana.webp"
    },

    {
        "id": 30,
        "name": "Bacchetta",
        "category": "Focus Arcano",
        "price": "10",
        "image": "./media/focus/bacchetta-del-mago.webp"
    },

    {
        "id": 31,
        "name": "Bastone",
        "category": "Focus Arcano",
        "price": "5",
        "image": "./media/focus/bastone-del-potere.webp"
    },

    {
        "id": 32,
        "name": "Cristallo",
        "category": "Focus Arcano",
        "price": "10",
        "image": "./media/focus/psi-crystal.webp"
    },

    {
        "id": 33,
        "name": "Globo",
        "category": "Focus Arcano",
        "price": "20",
        "image": "./media/focus/sfera-di-cristallo.webp"
    },

    {
        "id": 34,
        "name": "Verga",
        "category": "Focus Arcano",
        "price": "10",
        "image": "./media/focus/verga-dell-allerta.webp"
    },

    {
        "id": 35,
        "name": "Bacchetta in Legno di Tasso",
        "category": "Focus Druidico",
        "price": "10",
        "image": "./media/focus/bacchetta-dei-segreti.webp"
    },

    {
        "id": 37,
        "name": "Bastone di Legno",
        "category": "Focus Druidico",
        "price": "5",
        "image": "./media/focus/bastone-dei-boschi.webp"
    },

    {
        "id": 38,
        "name": "Rametto di Vischio",
        "category": "Focus Druidico",
        "price": "1",
        "image": "./media/focus/ramo-di-vischio.webp"
    },

    {
        "id": 39,
        "name": "Totem",
        "category": "Focus Druidico",
        "price": "1",
        "image": "./media/focus/Pheonix-Totem.webp"
    },

    {
        "id": 40,
        "name": "Aghi da Cerbottana (50)",
        "category": "Munizioni",
        "price": "1",
        "image": "./media/ammo/cerbottana.webp"
    },

    {
        "id": 41,
        "name": "Frecce (20)",
        "category": "Munizioni",
        "price": "1",
        "image": "./media/ammo/freccia.webp"
    },

    {
        "id": 42,
        "name": "Proiettili da Fionda (20)",
        "category": "Munizioni",
        "price": "0.04",
        "image": "./media/ammo/proiettili-fionda.webp"
    },

    {
        "id": 43,
        "name": "Quadrelli da Balestra (20)",
        "category": "Munizioni",
        "price": "1",
        "image": "./media/ammo/quadrelli.png"
    },

    {
        "id": 44,
        "name": "Amuleto",
        "category": "Simbolo Sacro",
        "price": "5",
        "image": "./media/symbol/amuleto-della-salute.webp"
    },

    {
        "id": 45,
        "name": "Emblema",
        "category": "Simbolo Sacro",
        "price": "5",
        "image": "./media/symbol/simbolo.webp"
    },

    {
        "id": 46,
        "name": "Reliquiario",
        "category": "Simbolo Sacro",
        "price": "5",
        "image": "./media/symbol/reliquary.png"
    },

    {
        "id": 47,
        "name": "Asino o Mulo",
        "category": "Veicolo",
        "price": "8",
        "image": "./media/vehicles/mulo.webp"
    },

    {
        "id": 48,
        "name": "Cavallo da Galoppo",
        "category": "Veicolo",
        "price": "75",
        "image": "./media/vehicles/cavallo-da-galoppo.webp"
    },

    {
        "id": 49,
        "name": "Elefante",
        "category": "Veicolo",
        "price": "200",
        "image": "./media/vehicles/elefante.webp"
    }
]